deposit:800:638616377827066977
Essen:50:638616377860598722
Waschmaschine:250,99:638616377937033829
deposit:200:638616377983998528
Auto lackieren:560:638616378026309276
Bahnfahrt:49,99:638616378234638555
